…
The code above is not correct, it misses 12 obsersations in total. The correct code is as follows:

``` r
filter(gapminder, country %in% c("Rwanda", "Afghanistan"))
```

    ## # A tibble: 24 × 6
    ##        country continent  year lifeExp      pop gdpPercap
    ##         <fctr>    <fctr> <int>   <dbl>    <int>     <dbl>
    ## 1  Afghanistan      Asia  1952  28.801  8425333  779.4453
    ## 2  Afghanistan      Asia  1957  30.332  9240934  820.8530
    ## 3  Afghanistan      Asia  1962  31.997 10267083  853.1007
    ## 4  Afghanistan      Asia  1967  34.020 11537966  836.1971
    ## 5  Afghanistan      Asia  1972  36.088 13079460  739.9811
    ## 6  Afghanistan      Asia  1977  38.438 14880372  786.1134
    ## 7  Afghanistan      Asia  1982  39.854 12881816  978.0114
    ## 8  Afghanistan      Asia  1987  40.822 13867957  852.3959
    ## 9  Afghanistan      Asia  1992  41.674 16317921  649.3414
    ## 10 Afghanistan      Asia  1997  41.763 22227415  635.3414
    ## # ... with 14 more rows
…
**Use more of the dplyr functions for operating on a single table.**

``` r
## using *arrange()* and *desc()* to change the order of the subset of gapminder
gapminder %>%
  filter(country == "Canada" | country == "China") %>% 
  select(country, year, lifeExp, pop, gdpPercap) %>% 
  arrange(desc(year))
```

    ## # A tibble: 24 × 5
    ##    country  year lifeExp        pop gdpPercap
    ##     <fctr> <int>   <dbl>      <int>     <dbl>
    ## 1   Canada  2007  80.653   33390141 36319.235
    ## 2    China  2007  72.961 1318683096  4959.115
    ## 3   Canada  2002  79.770   31902268 33328.965
    ## 4    China  2002  72.028 1280400000  3119.281
    ## 5   Canada  1997  78.610   30305843 28954.926
    ## 6    China  1997  70.426 1230075000  2289.234
    ## 7   Canada  1992  77.950   28523502 26342.884
    ## 8    China  1992  68.690 1164970000  1655.784
    ## 9   Canada  1987  76.860   26549700 26626.515
    ## 10   China  1987  67.274 1084035000  1378.904
    ## # ... with 14 more rows

``` r
## using *mutate()* to add a new variable gdp to the gapminder data set.
mutate(gapminder, gdp = gdpPercap * pop)
```

    ## # A tibble: 1,704 × 7
    ##        country continent  year lifeExp      pop gdpPercap         gdp
    ##         <fctr>    <fctr> <int>   <dbl>    <int>     <dbl>       <dbl>
    ## 1  Afghanistan      Asia  1952  28.801  8425333  779.4453  6567086330
    ## 2  Afghanistan      Asia  1957  30.332  9240934  820.8530  7585448670
    ## 3  Afghanistan      Asia  1962  31.997 10267083  853.1007  8758855797
    ## 4  Afghanistan      Asia  1967  34.020 11537966  836.1971  9648014150
    ## 5  Afghanistan      Asia  1972  36.088 13079460  739.9811  9678553274
    ## 6  Afghanistan      Asia  1977  38.438 14880372  786.1134 11697659231
    ## 7  Afghanistan      Asia  1982  39.854 12881816  978.0114 12598563401
    ## 8  Afghanistan      Asia  1987  40.822 13867957  852.3959 11820990309
    ## 9  Afghanistan      Asia  1992  41.674 16317921  649.3414 10595901589
    ## 10 Afghanistan      Asia  1997  41.763 22227415  635.3414 14121995875
    ## # ... with 1,694 more rows
…
